<svg width="29" height="26" viewBox="0 0 29 26" fill="none" xmlns="http://www.w3.org/2000/svg">
<path d="M27.4413 3.87444C27.7813 3.87444 28.0728 4.02071 28.3157 4.31323C28.5586 4.60576 28.6557 4.94704 28.5586 5.28833L26.3725 15.4293C26.2754 15.7218 26.1296 15.9168 25.9353 16.1118C25.741 16.3069 25.4981 16.3556 25.2552 16.3556H10.0502L10.536 18.6958H24.2351C24.5751 18.6958 24.8666 18.8421 25.1095 19.1346C25.3524 19.4272 25.4495 19.7684 25.3524 20.1097L25.3038 20.3535C25.9353 20.9873 26.2754 21.7186 26.2754 22.5962C26.2754 23.4738 25.9353 24.2539 25.3524 24.8389C24.7694 25.424 24.0408 25.7165 23.1664 25.7165C22.2919 25.7165 21.5147 25.424 20.9317 24.8389C20.3488 24.2539 20.0573 23.4738 20.0573 22.5962C20.0573 22.0599 20.2031 21.5236 20.4945 21.0361H13.4021C13.6936 21.5236 13.8393 22.0599 13.8393 22.5962C13.8393 23.4738 13.4993 24.2539 12.9163 24.8389C12.3334 25.424 11.6047 25.7165 10.7303 25.7165C9.85587 25.7165 9.07862 25.424 8.49568 24.8389C7.91274 24.2539 7.62127 23.5225 7.62127 22.645C7.62127 21.7674 7.91274 21.0361 8.49568 20.451L5.09519 3.09437H1.20892C1.0146 3.09437 0.868869 3.04562 0.771712 2.94811C0.674555 2.8506 0.625977 2.70433 0.625977 2.50932V1.33921C0.625977 1.19294 0.674555 1.04668 0.771712 0.949169C0.868869 0.85166 1.0146 0.75415 1.20892 0.75415H6.06676C6.35823 0.75415 6.60112 0.85166 6.79543 1.04668C6.98975 1.2417 7.13548 1.43671 7.23264 1.68049L7.62127 3.87444H27.4413ZM10.7303 23.7663C11.0218 23.7663 11.3132 23.6688 11.5561 23.425C11.7504 23.23 11.8962 22.9375 11.8962 22.5962C11.8962 22.3037 11.7504 22.0111 11.5561 21.7674C11.3132 21.5724 11.0218 21.4261 10.7303 21.4261C10.3902 21.4261 10.0988 21.5724 9.90445 21.7674C9.66156 22.0111 9.5644 22.3037 9.5644 22.5962C9.5644 22.9375 9.66156 23.23 9.90445 23.425C10.0988 23.6688 10.3902 23.7663 10.7303 23.7663ZM23.1664 23.7663C23.4578 23.7663 23.7493 23.6688 23.9922 23.425C24.1865 23.23 24.3322 22.9375 24.3322 22.5962C24.3322 22.3037 24.1865 22.0111 23.9922 21.7674C23.7493 21.5724 23.4578 21.4261 23.1664 21.4261C22.8263 21.4261 22.5348 21.5724 22.3405 21.7674C22.0976 22.0111 22.0005 22.3037 22.0005 22.5962C22.0005 22.9375 22.0976 23.23 22.3405 23.425C22.5348 23.6688 22.8263 23.7663 23.1664 23.7663ZM24.2837 14.0154L25.9839 6.21466H8.10705L9.61298 14.0154H24.2837Z" fill="white" stroke="white" stroke-width="0.5"/>
</svg>
